<svg xmlns="http://www.w3.org/2000/svg" width="567" height="560" viewBox="0 0 567 560">
  <g>
    <rect fill="none" height="562" width="569" y="-1" x="-1"/>
  </g>
  <g>
    <g>
      <path d="m137.2,411.6c-1,-3.5 -77.9,-37.3 -80.7,-40c-0.3,-0.3 -21.8,-8.4 -30,-0.2c-8.2,8.2 -0.4,29.3 0.2,29.9c2.8,2.8 44.2,72.4 47.8,73.3c7,1.8 14.7,0 20.1,-5.4c5.6,-5.5 44.6,-50.5 42.6,-57.6zm56.3,96.9c-2.7,-2.7 -36.6,-79.7 -40,-80.6c-7.1,-1.9 -52.1,37 -57.6,42.5c-5.4,5.4 -7.2,13.1 -5.4,20.1c0.9,3.6 70.5,44.9 73.3,47.8c0.6,0.7 21.7,8.4 30,0.2c8.2,-8.2 0,-29.7 -0.3,-30z" fill="#39CBC7"/>
      <path d="m306.8,200.5c-1.4,-2.9 -247.1,-189.3 -249.4,-191.7c-11.8,-11.8 -31.2,-11.5 -43.2,0.5s-12.3,31.4 -0.5,43.2c2.5,2.5 188.8,248.5 191.8,249.9c11.3,5.4 55.6,-27.1 65.2,-36.6c9.6,-9.6 41.7,-53.9 36.1,-65.3zm249.5,306.9c-2.4,-2.4 -188.7,-248.1 -191.6,-249.5c-11.4,-5.5 -55.8,26.7 -65.4,36.3c-9.6,9.5 -42,54 -36.7,65.3c1.4,3 247.4,189.2 249.9,191.7c11.8,11.8 31.2,11.6 43.3,-0.5c12.1,-12.1 12.3,-31.5 0.5,-43.3z" fill="#ED5366"/>
      <g>
        <path d="m333.2,286.5l212.3,271c3.7,-1.5 7.2,-3.8 10.2,-6.9c12.1,-12.1 12.3,-31.5 0.5,-43.3c-1.8,-1.8 -105.4,-138.3 -159.5,-208.6l-24,-29.8c0.1,0.1 -39.5,17.6 -39.5,17.6zm-50.1,-50.2l17.4,-39.6l-44.4,-35.9c-72.4,-55.6 -197,-150.3 -198.7,-152c-5.2,-5.2 -12,-8 -18.9,-8.5l-4.7,0c-7.1,0.6 -14.1,3.5 -19.6,9c-3,3 -5.2,6.5 -6.8,10.1l275.7,216.9z" fill="#39CBC7"/>
      </g>
      <path d="m193.8,538.5c8.2,-8.2 0,-29.7 -0.2,-29.9c-2.6,-2.6 -33.5,-72.8 -39.3,-79.9l-61.5,61.3l8.8,8.8c20,13.2 60.1,37.3 62.2,39.4c0.7,0.7 21.8,8.5 30,0.3z" fill="#39CBC7"/>
      <path d="m498.6,66.5c29.7,29.7 7.8,99.7 -21.1,128.6c-28.9,29 -405.6,357.9 -435.3,328.2c-29.7,-29.7 298.9,-406.8 327.9,-435.7c28.9,-28.9 98.9,-50.8 128.5,-21.1z" fill="#ED5366"/>
      <path d="m348.4,216.7c11.4,11.4 7.9,33.4 -7.7,49.1c-15.7,15.7 -37.7,19.2 -49.1,7.7c-11.4,-11.4 -7.9,-33.4 7.7,-49.1c15.7,-15.6 37.7,-19.1 49.1,-7.7z" fill="#FFFFFF"/>
      <path d="m498.6,66.5c-23.2,-23.3 -71.2,-14.8 -104.8,3.9l3.1,0.1c19.3,11 37.4,24.7 53.9,41.2c16.5,16.5 30.2,34.6 41.2,53.9l2.2,6.9c19,-33.7 27.9,-82.5 4.4,-106z" fill="#39CBC7"/>
    </g>
  </g>
</svg>
