<svg xmlns="http://www.w3.org/2000/svg" width="15.94" height="32" viewBox="0 0 15.94 32">
	<path fill-rule="evenodd" d="M1345.8,1816.67a1,1,0,0,1-.75.33,0.981,0.981,0,0,1-.74-0.33,1.194,1.194,0,0,1,0-1.6l13.11-14.07-13.11-14.07a1.194,1.194,0,0,1,0-1.6,1.006,1.006,0,0,1,1.49,0l13.85,14.87a1.194,1.194,0,0,1,0,1.6Z" transform="translate(-1344.03 -1785)"/>
</svg>
