<svg xmlns="http://www.w3.org/2000/svg" xmlns:xlink="http://www.w3.org/1999/xlink" preserveAspectRatio="xMidYMid" width="11" height="11" viewBox="0 0 11 11">
  <path d="M9.638,10.894 C10.140,11.062 10.528,11.030 10.800,10.800 C11.030,10.528 11.061,10.141 10.894,9.638 C10.727,9.136 10.444,8.686 10.047,8.288 L8.791,7.032 L10.039,1.813 C10.065,1.730 10.044,1.651 9.976,1.578 L8.971,0.573 C8.914,0.516 8.843,0.492 8.759,0.503 C8.675,0.518 8.613,0.563 8.571,0.636 L6.381,4.623 L4.348,2.591 L4.764,1.068 C4.770,1.057 4.772,1.036 4.772,1.005 C4.772,0.932 4.749,0.871 4.702,0.824 L3.940,0.071 C3.878,0.018 3.812,-0.005 3.744,0.000 C3.660,0.011 3.600,0.045 3.563,0.102 L2.080,2.080 L0.102,3.564 C0.045,3.611 0.011,3.673 0.000,3.752 L0.000,3.768 C0.000,3.841 0.024,3.901 0.071,3.948 L0.824,4.702 C0.898,4.770 0.979,4.791 1.068,4.765 L2.590,4.349 L4.623,6.381 L0.636,8.571 C0.568,8.603 0.526,8.657 0.510,8.736 C0.505,8.752 0.503,8.769 0.503,8.791 C0.503,8.854 0.518,8.903 0.549,8.939 L1.303,9.945 C1.376,10.034 1.462,10.065 1.562,10.039 L7.024,8.783 L8.288,10.047 C8.686,10.444 9.136,10.726 9.638,10.894 Z" />
</svg>
