<svg xmlns="http://www.w3.org/2000/svg" xmlns:xlink="http://www.w3.org/1999/xlink" preserveAspectRatio="xMidYMid" width="11" height="11" viewBox="0 0 11 11">
  <path d="M10.894,1.362 C11.062,0.860 11.030,0.472 10.800,0.200 C10.528,-0.030 10.141,-0.061 9.638,0.105 C9.136,0.273 8.686,0.556 8.288,0.954 L7.033,2.209 L1.813,0.961 C1.730,0.935 1.651,0.956 1.578,1.024 L0.573,2.028 C0.516,2.086 0.492,2.157 0.503,2.240 C0.518,2.324 0.563,2.387 0.636,2.429 L4.623,4.619 L2.591,6.652 L1.068,6.236 C1.057,6.230 1.037,6.228 1.005,6.228 C0.932,6.228 0.872,6.251 0.825,6.299 L0.071,7.060 C0.019,7.122 -0.005,7.188 0.001,7.256 C0.011,7.340 0.045,7.400 0.103,7.437 L2.080,8.919 L3.564,10.898 C3.611,10.955 3.674,10.989 3.752,10.999 L3.768,10.999 C3.841,10.999 3.901,10.976 3.948,10.929 L4.702,10.175 C4.770,10.102 4.791,10.021 4.765,9.932 L4.349,8.410 L6.381,6.377 L8.571,10.364 C8.602,10.432 8.657,10.474 8.736,10.490 C8.752,10.495 8.770,10.497 8.791,10.497 C8.854,10.497 8.903,10.482 8.940,10.451 L9.945,9.697 C10.034,9.624 10.065,9.537 10.039,9.438 L8.783,3.975 L10.047,2.712 C10.444,2.314 10.727,1.864 10.894,1.362 Z"/>
</svg>
