<?xml version="1.0" encoding="utf-8"?>
<!-- Generator: Adobe Illustrator 20.1.0, SVG Export Plug-In . SVG Version: 6.00 Build 0)  -->
<svg version="1.1" id="Layer_1" xmlns="http://www.w3.org/2000/svg" xmlns:xlink="http://www.w3.org/1999/xlink" x="0px" y="0px"
	 viewBox="0 0 128.8 45" style="enable-background:new 0 0 128.8 45;" xml:space="preserve">
<style type="text/css">
	.st0{fill:#FFFFFF;}
	.st1{fill:#F04B5E;}
</style>
<circle class="st0" cx="22.4" cy="22.2" r="19.8"/>
<path class="st1" d="M25.7,24.4l6.3-5.3l-3.3-2.5L25.7,24.4z"/>
<path class="st1" d="M29.1,13.5c0,0.2-0.1,0.5-0.1,0.7c-0.4,0.9,0.1,1.4,0.8,1.8c0.8,0.5,1.6,1,2.3,1.6
	C31.7,15.9,30.6,14.4,29.1,13.5z"/>
<path class="st1" d="M22.6,0C10.1,0,0,10,0,22.4S10,45,22.4,45C34.9,45,45,35,45,22.6v-0.1C45,10.1,34.9,0.1,22.6,0z M17.2,33.2
	c-0.3,0.3-0.7,0.6-1.1,0.9c-0.2-0.2-0.5-0.3-0.6-0.5c-0.1-0.2-0.1-0.4,0-0.6c0.3-0.3,0.6-0.6,0.9-0.8c0.3-0.2,0.6-0.1,0.8,0.2l0,0
	C17.5,32.6,17.5,32.9,17.2,33.2L17.2,33.2z M20.5,30.3c-0.3,0.3-0.6,0.6-1,0.8c-0.4,0.3-0.9-0.1-0.9-0.6c0-0.1,0.1-0.3,0.2-0.4
	c0.3-0.3,0.6-0.5,0.9-0.7c0.3-0.1,0.6,0,0.8,0.1C20.8,29.7,20.8,30,20.5,30.3L20.5,30.3z M32.9,19.8l-9.4,8c-0.6,0.5-1,0.4-1.2-0.4
	c-1.2-5.8-4-11-8.1-15.2L14,11.9c-0.2-0.2-0.4-0.5-0.2-0.8c0.2-0.2,0.5-0.3,0.8-0.3c0.9,0.1,1.8,0.3,2.7,0.5c3.5,0.7,7,1.9,10.2,3.4
	c0.1-0.7,0.2-1.4,0.3-2s0.5-0.9,1-0.6c2.5,1,4.2,3.3,4.5,6c0,0.2,0,0.3,0.1,0.5C33.4,19.1,33.3,19.5,32.9,19.8z"/>
<path class="st1" d="M26.8,15.6c-3.3-1.5-6.8-2.6-10.4-3.3c-0.1,0-0.2,0-0.3,0c3.4,3.9,5.9,8.5,7.2,13.6c0.1-0.1,0.2-0.2,0.2-0.3
	c1.6-2.8,2.9-5.9,3.7-9C27.3,16.2,27.2,15.8,26.8,15.6C26.9,15.7,26.9,15.7,26.8,15.6L26.8,15.6L26.8,15.6z"/>
<path class="st1" d="M69.2,21.4v-2.6h-8.7v11.2h3.3v-3.9h5v-2.6h-5v-2.2H69.2z"/>
<path class="st1" d="M74,30.1V18.2h-3.2v11.9H74z"/>
<path class="st1" d="M85.2,21.4H82l-1.6,5.3l-1.9-5.3h-3.3l3.6,8.5l-0.2,0.3c-0.2,0.4-0.5,0.6-0.9,0.6c-0.4,0-0.9-0.2-1.2-0.5
	l-1.3,2.2c0.8,0.7,1.8,1,2.8,1c1.6,0.1,3.1-0.9,3.6-2.5L85.2,21.4z"/>
<path class="st1" d="M98.1,21.2c-1.3,0-2.4,0.7-2.9,1.9c-0.4-1.2-1.6-1.9-2.9-1.9c-1.1,0-2.1,0.5-2.7,1.5v-1.3h-3.2v8.7h3.2v-4.3
	c0-1,0.5-1.7,1.4-1.7s1.2,0.5,1.2,1.4v4.6h3.2v-4.3c0-1,0.5-1.7,1.4-1.7s1.2,0.5,1.2,1.4v4.6h3.2v-5.6c0.2-1.7-1.1-3.1-2.7-3.3
	c0,0,0,0,0,0L98.1,21.2L98.1,21.2z"/>
<path class="st1" d="M109,21.2c-0.9,0-1.8,0.4-2.4,1.1v-4.2h-3.2v11.9h3.2v-1c0.6,0.7,1.5,1.1,2.4,1.1c2.4,0,4-1.7,4-4.4
	S111.4,21.2,109,21.2z M108.2,27.6c-0.9,0-1.6-0.8-1.6-1.9s0.6-1.9,1.6-1.9s1.6,0.8,1.6,1.9S109.1,27.6,108.2,27.6L108.2,27.6z"/>
<path class="st1" d="M117.9,30.1V18.2h-3.2v11.9H117.9z"/>
<path class="st1" d="M124.2,21.2c-2.4-0.2-4.4,1.6-4.6,4c0,0.2,0,0.4,0,0.5c0,2.7,1.8,4.4,4.7,4.4c1.5,0.1,2.9-0.5,3.9-1.6l-1.7-1.6
	c-0.5,0.5-1.2,0.8-1.9,0.8c-0.8,0-1.5-0.5-1.7-1.3h5.9C128.9,23.3,127.2,21.2,124.2,21.2z M122.8,24.9c0.2-0.9,0.7-1.5,1.4-1.5
	c0.7,0,1.3,0.6,1.3,1.3c0,0,0,0,0,0l0,0v0.1L122.8,24.9z"/>
</svg>
