<svg xmlns="http://www.w3.org/2000/svg" viewBox="0 0 277.97 137.17">
  <g>
    <g>
      <g>
        <g>
          <g>
            <path fill="#fff"
                  d="M120.45,57a4.13,4.13,0,0,0,.28-1.27,2.8,2.8,0,0,0-3-2.83A2.62,2.62,0,0,0,115,55l-6.22,19-7.14-19.14a2.81,2.81,0,0,0-5.37,0L89.22,74.05,83,55a2.62,2.62,0,0,0-2.68-2.12,2.8,2.8,0,0,0-3,2.83A4.14,4.14,0,0,0,77.57,57l8.69,25.78A2.56,2.56,0,0,0,89,84.72a2.81,2.81,0,0,0,2.83-2L99,63.17l7.21,19.57a2.79,2.79,0,0,0,2.83,2,2.65,2.65,0,0,0,2.75-1.91ZM55.67,78.82,45.39,68.61,55.67,58.39A3.32,3.32,0,1,0,51,53.69L38.47,66.2a3.45,3.45,0,0,0,0,4.81L51,83.52a3.32,3.32,0,0,0,4.69-4.69ZM35.91,81.16V56a3.32,3.32,0,0,0-6.64,0V81.16a3.32,3.32,0,0,0,6.64,0ZM64,56.25V81.4a3.32,3.32,0,1,0,6.64,0V56.25a3.32,3.32,0,0,0-6.64,0Zm63.45,0V81.4a3.32,3.32,0,1,0,6.64,0V56.25a3.32,3.32,0,1,0-6.64,0Zm0,0V81.4a3.32,3.32,0,1,0,6.64,0V56.25a3.32,3.32,0,1,0-6.64,0Zm0,0V81.4a3.32,3.32,0,1,0,6.64,0V56.25a3.32,3.32,0,1,0-6.64,0Zm67.2,2.46a9.62,9.62,0,0,1,6.37,2.4,3.44,3.44,0,0,0,2,.68,2.79,2.79,0,0,0,2.83-2.87,2.88,2.88,0,0,0-.95-2.08,14.38,14.38,0,0,0-10.23-3.92c-9.16,0-15.56,6.49-15.56,15.78s6.4,15.78,15.56,15.78a14.35,14.35,0,0,0,10.22-3.9,2.9,2.9,0,0,0,1-2.1A2.79,2.79,0,0,0,203,75.61a3.53,3.53,0,0,0-2,.71,9.63,9.63,0,0,1-6.32,2.37c-5.49,0-9.32-4.11-9.32-10S189.18,58.71,194.67,58.71Zm30.91-5.79A15.37,15.37,0,0,0,209.93,68.7a15.65,15.65,0,1,0,31.3,0A15.37,15.37,0,0,0,225.58,52.92Zm0,25.93c-6.19,0-9.43-5.1-9.43-10.15,0-6.66,4.74-10.15,9.43-10.15,6.19,0,9.43,5.1,9.43,10.15C235,75.36,230.27,78.85,225.58,78.85ZM275,53.1a3,3,0,0,0-2.7,1.82l-9.67,20.25-.08-.18-9.69-20.11a3,3,0,0,0-2.73-1.78A2.89,2.89,0,0,0,247.21,56V81.34a2.94,2.94,0,1,0,5.88,0V67.88l7,14.79a2.65,2.65,0,0,0,2.56,1.63,2.76,2.76,0,0,0,2.57-1.64l6.88-14.77v13.5a2.94,2.94,0,0,0,5.88,0V56.06A2.81,2.81,0,0,0,275,53.1Z"
                  transform="translate(0 -0.12)"/>
            <path fill="#fff"
                  d="M149.93,97.88a4.94,4.94,0,0,0-3-1,5,5,0,0,0-4,2,67.58,67.58,0,0,1-25.5,20.51,84,84,0,0,1-35.9,7.89c-19.3,0-37.4-6.21-51-17.48A59.2,59.2,0,0,1,15.44,91.2a48.93,48.93,0,0,1,0-45C20.78,35.71,29.69,26.75,41.2,20.3A82.65,82.65,0,0,1,81.6,10.07a84,84,0,0,1,36,7.92,67.51,67.51,0,0,1,25.51,20.6,5,5,0,0,0,4,2,5,5,0,0,0,4-7.93A77.56,77.56,0,0,0,121.84,9,94.06,94.06,0,0,0,81.6.12c-21.62,0-42,7-57.36,19.78A69.14,69.14,0,0,0,6.56,41.68a58.89,58.89,0,0,0,0,54C12.81,108,23.1,118.37,36.33,125.78a92.66,92.66,0,0,0,45.27,11.5,94.08,94.08,0,0,0,40.15-8.85A77.66,77.66,0,0,0,151,104.84a5,5,0,0,0-1-7"
                  transform="translate(0 -0.12)"/>
            <path fill="#fff" d="M157.9,63.22a5.48,5.48,0,1,0,5.48,5.48,5.49,5.49,0,0,0-5.48-5.48"
                  transform="translate(0 -0.12)"/>
          </g>
        </g>
      </g>
    </g>
  </g>
</svg>
