<svg xmlns="http://www.w3.org/2000/svg" viewBox="0 0 166.04 82.84">
  <path
    d="M61.54,9.1H40.94a9.24,9.24,0,0,0-9.2,9.2h0a9.24,9.24,0,0,0,9.2,9.2h20.6a9.24,9.24,0,0,0,9.2-9.2h0A9.18,9.18,0,0,0,61.54,9.1Z"
    fill="#e6f0f4"/>
  <path
    d="M75,12.9H58.64a7.34,7.34,0,0,0-7.3,7.3h0a7.34,7.34,0,0,0,7.3,7.3H75a7.34,7.34,0,0,0,7.3-7.3h0A7.28,7.28,0,0,0,75,12.9Z"
    fill="#e6f0f4"/>
  <path
    d="M61.54,0h-4.1a13.83,13.83,0,0,0-13.8,13.8h0a13.83,13.83,0,0,0,13.8,13.8h4.1a13.83,13.83,0,0,0,13.8-13.8h0A13.89,13.89,0,0,0,61.54,0Z"
    fill="#e6f0f4"/>
  <path
    d="M120.34,50.3H90.94A10.93,10.93,0,0,0,80,61.2h0a10.93,10.93,0,0,0,10.9,10.9h29.4a10.93,10.93,0,0,0,10.9-10.9h0A10.93,10.93,0,0,0,120.34,50.3Z"
    fill="#d7ecf4"/>
  <path
    d="M107.94,26.5H17.54A10.93,10.93,0,0,0,6.64,37.4h0a10.93,10.93,0,0,0,10.9,10.9h90.4a10.93,10.93,0,0,0,10.9-10.9h0A10.8,10.8,0,0,0,107.94,26.5Z"
    fill="#d7ecf4"/>
  <path
    d="M99.44,11.6h-42a10.93,10.93,0,0,0-10.9,10.9h0a10.93,10.93,0,0,0,10.9,10.9h42a10.93,10.93,0,0,0,10.9-10.9h0A10.8,10.8,0,0,0,99.44,11.6Z"
    fill="#d7ecf4"/>
  <path
    d="M73.64,52.7H19.44a8.49,8.49,0,0,0-8.5,8.5h0a8.49,8.49,0,0,0,8.5,8.5h54.3a8.49,8.49,0,0,0,8.5-8.5h0A8.64,8.64,0,0,0,73.64,52.7Z"
    fill="#d7ecf4"/>
  <path
    d="M71.24,60.7H47.74a8.49,8.49,0,0,0-8.5,8.5h0a8.49,8.49,0,0,0,8.5,8.5h23.6a8.49,8.49,0,0,0,8.5-8.5h0A8.58,8.58,0,0,0,71.24,60.7Z"
    fill="#d7ecf4"/>
  <path
    d="M43.64,19.4H23.54a3.8,3.8,0,0,0-3.8,3.8h0a3.8,3.8,0,0,0,3.8,3.8h20.1a3.8,3.8,0,0,0,3.8-3.8h0A3.8,3.8,0,0,0,43.64,19.4Z"
    fill="#d7ecf4"/>
  <path
    d="M101.34,6.6H73.64a3.8,3.8,0,0,0-3.8,3.8h0a3.8,3.8,0,0,0,3.8,3.8h27.7a3.8,3.8,0,0,0,3.8-3.8h0A3.74,3.74,0,0,0,101.34,6.6Z"
    fill="#d7ecf4"/>
  <path
    d="M148.84,20.3H83a17.2,17.2,0,0,0-17.2,17.2h0A17.2,17.2,0,0,0,83,54.7h65.8A17.2,17.2,0,0,0,166,37.5h0A17.2,17.2,0,0,0,148.84,20.3Z"
    fill="#d7ecf4"/>
  <path
    d="M143.84,43.7h-18.4a9.18,9.18,0,0,0-9.2,9.2h0a9.18,9.18,0,0,0,9.2,9.2h18.4a9.18,9.18,0,0,0,9.2-9.2h0A9.18,9.18,0,0,0,143.84,43.7Z"
    fill="#bae2f4"/>
  <path
    d="M156.74,47.6H142a7.34,7.34,0,0,0-7.3,7.3h0a7.34,7.34,0,0,0,7.3,7.3h14.7a7.34,7.34,0,0,0,7.3-7.3h0A7.34,7.34,0,0,0,156.74,47.6Z"
    fill="#bae2f4"/>
  <path
    d="M143.64,34.7h-2.3a13.83,13.83,0,0,0-13.8,13.8h0a13.83,13.83,0,0,0,13.8,13.8h2.3a13.83,13.83,0,0,0,13.8-13.8h0A13.89,13.89,0,0,0,143.64,34.7Z"
    fill="#bae2f4"/>
  <path
    d="M81.84,25.6,55.34,37.4a.64.64,0,0,1-.6,0l-17.6-7.5a.85.85,0,0,1,0-1.5l13-5.8c.1-.1.2-.1.4-.1L81.64,24A.84.84,0,0,1,81.84,25.6Z"
    fill="#ef6f81"/>
  <path
    d="M142.34,23.3,50.24,64.1c-8,3.5-33.1,3-36.7-4.9l-1.7-3.9,103.8-46c9.4-4.2,24.9-1.8,29.1,7.6h0A4.79,4.79,0,0,1,142.34,23.3Z"
    fill="#f14c5e"/>
  <path d="M15.24,61.3.54,47.7a1.55,1.55,0,0,1,.4-2.6l4.9-1.7A5.34,5.34,0,0,1,8,43.2l22.7,3.7c-1.6,1.5,3.6,7.7,2.7,8.4Z"
        fill="#f14c5e"/>
  <path
    d="M97.84,35.5l-29.3,13a1.34,1.34,0,0,0-.8,1.4l4.5,31.8a1.32,1.32,0,0,0,1.9,1l12.7-5.6a1.34,1.34,0,0,0,.7-.8l12.1-39.2A1.29,1.29,0,0,0,97.84,35.5Z"
    fill="#ef6f81"/>
  <path d="M138.34,10.2l-8.2,3.4a2.26,2.26,0,0,1-1.8-.1h0a2.06,2.06,0,0,1,.2-3.7l4.2-1.8S134.84,7.9,138.34,10.2Z"
        fill="#ea8b9b"/>
  <path
    d="M113.54,16.6l-2,.8a1.86,1.86,0,0,0-.8,2.8l.1.1a1.78,1.78,0,0,0,2.4.6l1.9-1a1.94,1.94,0,0,0,.6-2.9h0A2.18,2.18,0,0,0,113.54,16.6Z"
    fill="#ea8b9b"/>
  <path
    d="M105.94,20.3l-2,.8a1.86,1.86,0,0,0-.8,2.8l.1.1a1.78,1.78,0,0,0,2.4.6l1.9-1a1.94,1.94,0,0,0,.6-2.9h0A2.22,2.22,0,0,0,105.94,20.3Z"
    fill="#ea8b9b"/>
  <path
    d="M98.34,24.1l-2,.8a1.86,1.86,0,0,0-.8,2.8l.1.1a1.78,1.78,0,0,0,2.4.6l1.9-1a1.94,1.94,0,0,0,.6-2.9h0A2.22,2.22,0,0,0,98.34,24.1Z"
    fill="#ea8b9b"/>
  <path
    d="M90.64,27.8l-2,.8a1.86,1.86,0,0,0-.8,2.8l.1.1a1.78,1.78,0,0,0,2.4.6l1.9-1a1.94,1.94,0,0,0,.6-2.9h0A2.14,2.14,0,0,0,90.64,27.8Z"
    fill="#ea8b9b"/>
  <path
    d="M83,31.5l-2,.8a1.86,1.86,0,0,0-.8,2.8l.1.1a1.78,1.78,0,0,0,2.4.6l1.9-1a1.94,1.94,0,0,0,.6-2.9h0A2.18,2.18,0,0,0,83,31.5Z"
    fill="#ea8b9b"/>
  <path
    d="M75.44,35.3l-2,.8a1.86,1.86,0,0,0-.8,2.8l.1.1a1.78,1.78,0,0,0,2.4.6l1.9-1a1.94,1.94,0,0,0,.6-2.9h0A1.85,1.85,0,0,0,75.44,35.3Z"
    fill="#ea8b9b"/>
  <path
    d="M67.84,39l-2,.8a1.86,1.86,0,0,0-.8,2.8l.1.1a1.78,1.78,0,0,0,2.4.6l1.9-1a1.94,1.94,0,0,0,.6-2.9h0A2.22,2.22,0,0,0,67.84,39Z"
    fill="#ea8b9b"/>
  <path
    d="M60.14,42.7l-2,.8a1.86,1.86,0,0,0-.8,2.8l.1.1a1.78,1.78,0,0,0,2.4.6l1.9-1a1.94,1.94,0,0,0,.6-2.9h0A2.14,2.14,0,0,0,60.14,42.7Z"
    fill="#ea8b9b"/>
  <path
    d="M105.14,65.6h-16a7.23,7.23,0,0,0-7.2,7.2h0a7.23,7.23,0,0,0,7.2,7.2h16a7.23,7.23,0,0,0,7.2-7.2h0A7.23,7.23,0,0,0,105.14,65.6Z"
    fill="#e6f0f4"/>
  <path
    d="M115.64,68.6h-12.7a5.7,5.7,0,0,0-5.7,5.7h0a5.7,5.7,0,0,0,5.7,5.7h12.7a5.7,5.7,0,0,0,5.7-5.7h0A5.7,5.7,0,0,0,115.64,68.6Z"
    fill="#e6f0f4"/>
  <path
    d="M105.14,58.5h-3.2a10.71,10.71,0,0,0-10.7,10.7h0a10.71,10.71,0,0,0,10.7,10.7h3.2a10.71,10.71,0,0,0,10.7-10.7h0A10.71,10.71,0,0,0,105.14,58.5Z"
    fill="#e6f0f4"/>
  <path
    d="M150.54,49.8h-9.9a3.16,3.16,0,0,0-3.2,3.2h0a3.16,3.16,0,0,0,3.2,3.2h9.9a3.16,3.16,0,0,0,3.2-3.2h0A3.1,3.1,0,0,0,150.54,49.8Z"
    fill="#d7ecf4"/>
</svg>
