<svg xmlns="http://www.w3.org/2000/svg" viewBox="0 0 256 256">
  <title>fewer_seats_svgflat</title>
  <rect x="126.84" y="56.58" width="2.32" height="244.5" rx="1.16" ry="1.16"
        transform="translate(306.83 50.83) rotate(90)" fill="#e8e8e8"/>
  <rect x="26.56" y="180.04" width="7.3" height="18.42" rx="3.65" ry="3.65"
        transform="translate(60.43 378.5) rotate(180)" fill="#b5b5b5"/>
  <rect x="66.6" y="180.04" width="7.3" height="18.42" rx="3.65" ry="3.65"
        transform="translate(140.51 378.5) rotate(180)" fill="#b5b5b5"/>
  <polygon points="76.47 163.44 70.21 111.09 56.44 112.41 69.61 166.44 76.47 163.44" fill="#e0dada"/>
  <polygon points="20.2 163.44 25.55 111.09 40.23 112.41 27.05 166.44 20.2 163.44" fill="#e0dada"/>
  <path d="M19.11,178.86H77.26l-21-75.25h-16Zm0,5.37" fill="#eae4e4"/>
  <rect x="15.09" y="163.44" width="67.02" height="20.8" rx="9.31" ry="9.31" fill="#e0dada"/>
  <rect x="38.73" y="115.57" width="19.73" height="10.27" rx="5.14" ry="5.14" fill="#edebe6"/>
  <rect x="35.52" y="127.26" width="26.15" height="10.27" rx="5.14" ry="5.14" fill="#edebe6"/>
  <rect x="33.09" y="138.94" width="31.01" height="10.27" rx="5.14" ry="5.14" fill="#edebe6"/>
  <rect x="30.18" y="150.63" width="36.83" height="10.27" rx="5.14" ry="5.14" fill="#edebe6"/>
  <rect x="11.24" y="137.74" width="18.98" height="20.8" rx="9.49" ry="9.49" fill="#e0dada"/>
  <rect x="66.63" y="137.74" width="18.98" height="20.8" rx="9.49" ry="9.49" fill="#e0dada"/>
  <rect x="57.95" y="94.85" width="12.3" height="20.8" rx="6.15" ry="6.15" fill="#e0dada"/>
  <rect x="25.55" y="94.85" width="12.3" height="20.8" rx="6.15" ry="6.15" fill="#e0dada"/>
  <rect x="31.7" y="93.21" width="33.8" height="20.8" rx="10.4" ry="10.4" fill="#edebe6"/>
  <rect x="105.97" y="180.04" width="7.3" height="18.42" rx="3.65" ry="3.65"
        transform="translate(219.24 378.5) rotate(180)" fill="#b5b5b5"/>
  <rect x="146" y="180.04" width="7.3" height="18.42" rx="3.65" ry="3.65"
        transform="translate(299.31 378.5) rotate(-180)" fill="#b5b5b5"/>
  <polygon points="155.87 163.44 149.61 111.09 135.84 112.41 149.02 166.44 155.87 163.44" fill="#f14c5e"/>
  <polygon points="99.6 163.44 104.95 111.09 119.63 112.41 106.45 166.44 99.6 163.44" fill="#f14c5e"/>
  <path d="M98.51,178.86h58.15l-21-75.25h-16Zm0,5.37" fill="#ef6f81"/>
  <rect x="94.49" y="163.44" width="67.02" height="20.8" rx="9.31" ry="9.31" fill="#f14c5e"/>
  <rect x="118.14" y="115.57" width="19.73" height="10.27" rx="5.14" ry="5.14" fill="#ea8b9b"/>
  <rect x="114.92" y="127.26" width="26.15" height="10.27" rx="5.14" ry="5.14" fill="#ea8b9b"/>
  <rect x="112.49" y="138.94" width="31.01" height="10.27" rx="5.14" ry="5.14" fill="#ea8b9b"/>
  <rect x="109.59" y="150.63" width="36.83" height="10.27" rx="5.14" ry="5.14" fill="#ea8b9b"/>
  <rect x="90.64" y="137.74" width="18.98" height="20.8" rx="9.49" ry="9.49" fill="#ef6f81"/>
  <rect x="146.03" y="137.74" width="18.98" height="20.8" rx="9.49" ry="9.49" fill="#ef6f81"/>
  <rect x="137.36" y="94.85" width="12.3" height="20.8" rx="6.15" ry="6.15" fill="#f14c5e"/>
  <rect x="104.95" y="94.85" width="12.3" height="20.8" rx="6.15" ry="6.15" fill="#f14c5e"/>
  <rect x="111.1" y="93.21" width="33.8" height="20.8" rx="10.4" ry="10.4" fill="#ef6f81"/>
  <rect x="185.72" y="180.04" width="7.3" height="18.42" rx="3.65" ry="3.65"
        transform="translate(378.74 378.5) rotate(180)" fill="#b5b5b5"/>
  <rect x="225.76" y="180.04" width="7.3" height="18.42" rx="3.65" ry="3.65"
        transform="translate(458.82 378.5) rotate(180)" fill="#b5b5b5"/>
  <polygon points="235.62 163.44 229.37 111.09 215.59 112.41 228.77 166.44 235.62 163.44" fill="#f14c5e"/>
  <polygon points="179.36 163.44 184.7 111.09 199.38 112.41 186.21 166.44 179.36 163.44" fill="#f14c5e"/>
  <path d="M178.27,179.51l58.15-.64-21-75.25h-16Zm0-.64" fill="#ef6f81"/>
  <rect x="174.24" y="163.44" width="67.02" height="20.8" rx="9.31" ry="9.31" fill="#f14c5e"/>
  <rect x="197.89" y="115.57" width="19.73" height="10.27" rx="5.14" ry="5.14" fill="#ea8b9b"/>
  <rect x="194.68" y="127.26" width="26.15" height="10.27" rx="5.14" ry="5.14" fill="#ea8b9b"/>
  <rect x="192.25" y="138.94" width="31.01" height="10.27" rx="5.14" ry="5.14" fill="#ea8b9b"/>
  <rect x="189.34" y="150.63" width="36.83" height="10.27" rx="5.14" ry="5.14" fill="#ea8b9b"/>
  <rect x="170.4" y="137.74" width="18.98" height="20.8" rx="9.49" ry="9.49" fill="#ef6f81"/>
  <rect x="225.78" y="137.74" width="18.98" height="20.8" rx="9.49" ry="9.49" fill="#ef6f81"/>
  <rect x="217.11" y="94.85" width="12.3" height="20.8" rx="6.15" ry="6.15" fill="#f14c5e"/>
  <rect x="184.7" y="94.85" width="12.3" height="20.8" rx="6.15" ry="6.15" fill="#f14c5e"/>
  <rect x="190.85" y="93.21" width="33.8" height="20.8" rx="10.4" ry="10.4" fill="#ef6f81"/>
  <path
    d="M211,65.55l4.9-4.9a1.85,1.85,0,0,0,0-2.61l-.65-.65a1.85,1.85,0,0,0-2.61,0l-4.9,4.9-4.9-4.9a1.85,1.85,0,0,0-2.61,0l-.65.65a1.86,1.86,0,0,0,0,2.61l4.9,4.9-4.9,4.9a1.85,1.85,0,0,0,0,2.61l.65.65a1.85,1.85,0,0,0,2.61,0l4.9-4.9,4.9,4.9a1.85,1.85,0,0,0,2.61,0l.65-.65a1.85,1.85,0,0,0,0-2.61Z"
    fill="#f14c5e"/>
  <path
    d="M130.85,65.55l4.9-4.9a1.85,1.85,0,0,0,0-2.61l-.65-.65a1.85,1.85,0,0,0-2.61,0l-4.9,4.9-4.9-4.9a1.85,1.85,0,0,0-2.61,0l-.65.65a1.86,1.86,0,0,0,0,2.61l4.9,4.9-4.9,4.9a1.85,1.85,0,0,0,0,2.61l.65.65a1.85,1.85,0,0,0,2.61,0l4.9-4.9,4.9,4.9a1.85,1.85,0,0,0,2.61,0l.65-.65a1.85,1.85,0,0,0,0-2.61Z"
    fill="#f14c5e"/>
  <path
    d="M56.61,58.85a2.29,2.29,0,0,0-3.29,0L45.1,67.23l-2.05-2.1a2.29,2.29,0,0,0-3.29,0,2.4,2.4,0,0,0,0,3.35l3.7,3.77a2.29,2.29,0,0,0,3.28,0L56.61,62.2a2.41,2.41,0,0,0,0-3.35Z"
    fill="#00ba9b" fill-rule="evenodd"/>
</svg>
