<svg xmlns="http://www.w3.org/2000/svg" width="436" height="560" viewBox="0 0 436 560">
  <g>
    <rect fill="none" id="canvas_background" height="562" width="438" y="-1" x="-1"/>
  </g>
  <g>
    <polygon points="435.20001220703125,135.1999969482422 300.0999755859375,0 0.7999877333641052,0 0.7999877333641052,560 435.20001220703125,560 " fill="#38CBC6"/>
    <polygon points="300.0999755859375,0 300.0999755859375,135.1999969482422 435.20001220703125,135.1999969482422 " fill="#209891"/>
    <g>
      <path d="m263.4,329.3l-164.1,0c-5.3,0 -9.7,4.3 -9.7,9.7s4.3,9.7 9.7,9.7l164.1,0c5.3,0 9.7,-4.3 9.7,-9.7s-4.3,-9.7 -9.7,-9.7z" fill="#FFFFFF"/>
      <path d="m369.7,290.7c0,-5.3 -4.3,-9.7 -9.7,-9.7l-67.6,0c-5.3,0 -9.7,4.3 -9.7,9.7c0,5.3 4.3,9.7 9.7,9.7l67.6,0c5.3,-0.1 9.7,-4.4 9.7,-9.7z" fill="#FFFFFF"/>
      <path d="m147.6,300.3l96.6,0c5.3,0 9.7,-4.3 9.7,-9.7c0,-5.3 -4.3,-9.7 -9.7,-9.7l-96.6,0c-5.3,0 -9.7,4.3 -9.7,9.7c0,5.4 4.4,9.7 9.7,9.7z" fill="#FFFFFF"/>
      <path d="m99.3,300.3c2.6,0 5,-1.1 6.9,-2.8c1.7,-1.8 2.8,-4.3 2.8,-6.9c0,-2.5 -1.1,-5 -2.8,-6.9c-3.6,-3.6 -10.2,-3.5 -13.7,0c-1.7,1.8 -2.8,4.3 -2.8,6.9c0,2.5 1.1,5 2.8,6.8c1.7,1.8 4.2,2.9 6.8,2.9z" fill="#FFFFFF"/>
      <path d="m304.9,332.1c-1.7,1.8 -2.8,4.2 -2.8,6.9c0,2.6 1,5 2.8,6.9c1.8,1.7 4.3,2.8 6.9,2.8s5,-1.1 6.9,-2.8c1.8,-1.8 2.8,-4.2 2.8,-6.9c0,-2.5 -1.1,-5 -2.8,-6.9c-3.8,-3.6 -10.2,-3.6 -13.8,0z" fill="#FFFFFF"/>
      <path d="m353.1,332.1c-1.7,1.8 -2.8,4.2 -2.8,6.9c0,2.6 1,5 2.8,6.9c1.8,1.7 4.3,2.8 6.9,2.8s5,-1.1 6.9,-2.9s2.8,-4.2 2.8,-6.8c0,-2.5 -1.1,-5 -2.8,-6.9c-3.7,-3.6 -10.1,-3.6 -13.8,0z" fill="#FFFFFF"/>
    </g>
    <g>
      <path d="m152.7,379.2c-21.2,11 -28.3,32.1 -30.9,53.9c-4,-3.4 -8,-6.7 -12,-10c-9.5,-7.9 -23.2,5.6 -13.7,13.7c9,7.6 18.1,15.1 27.1,22.7c6.4,5.4 16.2,2 16.5,-6.8c0.7,-20.9 1.7,-45.8 22.7,-56.7c11.1,-5.9 1.3,-22.6 -9.7,-16.8z" fill="#ED5365"/>
      <path d="m300.7,428.2c-4.1,-5.6 -8.3,-10.3 -15.8,-10.8c-14.1,-1.1 -38.2,19.1 -48.2,1.3c-2.5,-4.5 -8.8,-6.2 -13.2,-3.5c-13.7,8.4 -31.5,20.5 -45.9,4.8c-8.4,-9.2 -22.1,4.5 -13.7,13.7c18.1,19.6 41.4,13.6 61.9,2.5c4.3,4.6 9.5,7.8 16.4,10.3c8.8,3.2 39.5,-11.8 41.8,-8.5c7.3,9.9 24.1,0.3 16.7,-9.8z" fill="#ED5365"/>
    </g>
    <path d="m191.9,204.6l-24.2,-12.4c-1.7,-0.8 -2.7,-2.5 -2.7,-4.4l0,-7.4c12.4,-5.4 19.6,-15.8 23.1,-28.8c5.2,-1.6 9.1,-6.5 9.1,-12.2l0,-6.4c0,-4.9 -2.8,-9.2 -6.9,-11.3c-2.8,-24.2 -18.8,-34 -44.6,-34c-1.2,0 -2.4,0 -3.6,0.1c-8.7,0.7 -17.6,-1 -24.9,-5.9c-3,-2 -5.6,-4.2 -7.4,-6.5c-0.8,-1 -2.5,-0.4 -2.3,0.9c0.3,2.2 0.6,4.9 1.2,7.8c2.1,10.7 0.9,9.1 -3.3,19.2c-2.3,5.6 -3.8,11.8 -4.4,18.3c-4.1,2.2 -6.9,6.4 -6.9,11.3l0,6.4c0,5.8 3.9,10.6 9.1,12.2c3.5,13 10.6,23.4 23.1,28.8l0,7.4c0,1.9 -1.1,3.6 -2.8,4.4l-24.9,12.2c-4.2,2.3 -7.3,6 -9.1,10.2c15.8,11.3 35.1,18 56,18c20.8,0 40.1,-6.7 55.8,-17.9c-1.7,-4.1 -5,-7.8 -9.4,-10z" fill="#209891"/>
  </g>
</svg>
