<?xml version="1.0" encoding="utf-8"?>
<!-- Generator: Adobe Illustrator 18.1.1, SVG Export Plug-In . SVG Version: 6.00 Build 0)  -->
<svg version="1.1" id="Layer_1" xmlns="http://www.w3.org/2000/svg" xmlns:xlink="http://www.w3.org/1999/xlink" x="0px" y="0px"
	 viewBox="0 0 80 80" enable-background="new 0 0 80 80" xml:space="preserve">
<path fill="#079ED4" d="M23.3,36.7L10,50l13.3,13.3v-10h23.3v-6.7H23.3V36.7z M70,30L56.7,16.7v10H33.3v6.7h23.3v10L70,30z"/>
</svg>
