<svg xmlns="http://www.w3.org/2000/svg" xmlns:xlink="http://www.w3.org/1999/xlink" preserveAspectRatio="xMidYMid" width="5" height="7" viewBox="0 0 5 7">
  <path d="M3.951,3.290 L2.504,1.695 L1.047,3.292 C0.799,3.563 0.407,3.552 0.172,3.266 C0.058,3.128 0.001,2.951 0.001,2.775 C0.001,2.586 0.066,2.398 0.194,2.257 L2.079,0.191 C2.319,-0.071 2.695,-0.070 2.934,0.193 L4.807,2.259 C5.055,2.531 5.063,2.983 4.827,3.268 C4.590,3.553 4.198,3.563 3.951,3.290 ZM2.079,3.701 C2.319,3.439 2.695,3.440 2.934,3.703 L4.807,5.769 C5.055,6.041 5.063,6.493 4.827,6.778 C4.590,7.063 4.198,7.073 3.951,6.800 L2.504,5.205 L1.047,6.802 C0.799,7.073 0.407,7.062 0.172,6.776 C0.058,6.638 0.001,6.461 0.001,6.284 C0.001,6.096 0.066,5.907 0.194,5.767 L2.079,3.701 Z"/>
</svg>
