<svg xmlns="http://www.w3.org/2000/svg" xmlns:xlink="http://www.w3.org/1999/xlink" preserveAspectRatio="xMidYMid" width="9" height="13" viewBox="0 0 9 13">
  <path d="M8.437,5.318 L0.563,5.318 C0.411,5.318 0.279,5.259 0.167,5.142 C0.056,5.026 0.000,4.887 0.000,4.727 C0.000,4.567 0.056,4.428 0.167,4.311 L4.104,0.174 C4.216,0.057 4.348,-0.002 4.500,-0.002 C4.652,-0.002 4.784,0.057 4.895,0.174 L8.832,4.311 C8.944,4.428 9.000,4.567 9.000,4.727 C9.000,4.887 8.944,5.026 8.832,5.142 C8.721,5.259 8.589,5.318 8.437,5.318 ZM0.563,7.682 L8.437,7.682 C8.589,7.682 8.721,7.741 8.832,7.858 C8.944,7.975 9.000,8.113 9.000,8.273 C9.000,8.433 8.944,8.572 8.832,8.689 L4.895,12.826 C4.784,12.943 4.652,13.001 4.500,13.001 C4.348,13.001 4.216,12.943 4.104,12.826 L0.167,8.689 C0.056,8.572 0.000,8.433 0.000,8.273 C0.000,8.113 0.056,7.975 0.167,7.858 C0.279,7.741 0.410,7.682 0.563,7.682 Z"/>
</svg>
